<svg width="24" height="24" viewBox="0 0 24 24" fill="none" xmlns="http://www.w3.org/2000/svg">
<path d="M13.98 18L15.39 16.59L10.81 12L15.39 7.41L13.98 6L7.98002 12L13.98 18Z" fill="#4A4B57"/>
</svg>
